Dodgers Promotion Project - GE 461 Project 1
…
YES
NO
NO
NO
11

We observe that no promotion were given simultaneosuly. Therefore, we will not take other promotions into account while performing our linear regression. However, it is still unknown, and in my opinion is statistically effective, whether other promotions effect the number of attendants. Therefore, for further suggestions, the effect of other promotions can be considered.

Hence, to analyze the effect of bobblehead without any noise, we will clean our data so that we check 62 games, 51 of which no promotions were present, and 11 of which only bobblehead was present.

events %>%
  subset(bobblehead=="YES" & fireworks=="NO" & shirt=="NO" & cap=="NO" | bobblehead=="NO" & fireworks=="NO" & shirt=="NO" & cap == "NO" ) -> events_bobblehead
events_bobblehead

## # A tibble: 62 x 12
##    month day   attend day_of_week opponent   temp skies  day_night cap   shirt
##    <fct> <fct>  <dbl> <fct>       <fct>     <dbl> <fct>  <fct>     <fct> <fct>
##  1 APR   10     56000 Tuesday     Pirates      19 Clear  Day       NO    NO   
##  2 APR   11     29729 Wednesday   Pirates      14 Cloudy Night     NO    NO   
##  3 APR   12     28328 Thursday    Pirates      14 Cloudy Night     NO    NO   
##  4 APR   14     46549 Saturday    Padres       14 Cloudy Night     NO    NO   
##  5 APR   15     38359 Sunday      Padres       18 Clear  Day       NO    NO   
##  6 APR   23     26376 Monday      Braves       16 Cloudy Night     NO    NO   
##  7 APR   24     44014 Tuesday     Braves       17 Cloudy Night     NO    NO   
##  8 APR   25     26345 Wednesday   Braves       18 Cloudy Night     NO    NO   
##  9 APR   28     54242 Saturday    Nationals    22 Clear  Night     NO    NO   
## 10 MAY   7      43713 Monday      Giants       19 Clear  Night     NO    NO   
## # ... with 52 more rows, and 2 more variables: fireworks <fct>,
## #   bobblehead <fct>
…
